fsm/fsm.vcd
$date
	Fri Nov 19 16:40:57 2021
$end
$version
	Icarus Verilog
$end
$timescale
	1s
$end
$scope module BUF $end
$var wire 1 ! A $end
$var wire 1 " Y $end
$upscope $end
$scope module BancoPruebas_fsm $end
$var wire 8 # umbral_LH_out_synth [7:0] $end
$var wire 8 $ umbral_LH_out [7:0] $end
$var wire 8 % umbral_LH [7:0] $end
$var wire 3 & state_synth [2:0] $end
$var wire 3 ' state [2:0] $end
$var wire 1 ( reset $end
$var wire 3 ) nxt_state_synth [2:0] $end
$var wire 3 * nxt_state [2:0] $end
$var wire 8 + next_umbral_LH_out_synth [7:0] $end
$var wire 8 , next_umbral_LH_out [7:0] $end
$var wire 1 - init $end
$var wire 1 . empty_fifo_7 $end
$var wire 1 / empty_fifo_6 $end
$var wire 1 0 empty_fifo_5 $end
$var wire 1 1 empty_fifo_4 $end
$var wire 1 2 empty_fifo_3 $end
$var wire 1 3 empty_fifo_2 $end
$var wire 1 4 empty_fifo_1 $end
$var wire 1 5 empty_fifo_0 $end
$var wire 1 6 clk $end
$scope module fsm_bp $end
$var wire 8 7 umbral_LH [7:0] $end
$var wire 1 ( reset $end
$var wire 1 - init $end
$var wire 1 . empty_fifo_7 $end
$var wire 1 / empty_fifo_6 $end
$var wire 1 0 empty_fifo_5 $end
$var wire 1 1 empty_fifo_4 $end
$var wire 1 2 empty_fifo_3 $end
$var wire 1 3 empty_fifo_2 $end
$var wire 1 4 empty_fifo_1 $end
$var wire 1 5 empty_fifo_0 $end
$var wire 1 6 clk $end
$var reg 8 8 FIFO_empties [7:0] $end
$var reg 8 9 next_umbral_LH_out [7:0] $end
$var reg 3 : nxt_state [2:0] $end
$var reg 3 ; state [2:0] $end
$var reg 8 < umbral_LH_out [7:0] $end
$upscope $end
$scope module fsm_synth_bp $end
$var wire 8 = umbral_LH_out [7:0] $end
$var wire 8 > umbral_LH [7:0] $end
$var wire 3 ? state [2:0] $end
$var wire 1 ( reset $end
$var wire 3 @ nxt_state [2:0] $end
$var wire 8 A next_umbral_LH_out [7:0] $end
$var wire 1 - init $end
$var wire 1 . empty_fifo_7 $end
$var wire 1 / empty_fifo_6 $end
$var wire 1 0 empty_fifo_5 $end
$var wire 1 1 empty_fifo_4 $end
$var wire 1 2 empty_fifo_3 $end
$var wire 1 3 empty_fifo_2 $end
$var wire 1 4 empty_fifo_1 $end
$var wire 1 5 empty_fifo_0 $end
$var wire 1 6 clk $end
$var wire 1 B _069_ $end
$var wire 1 C _068_ $end
$var wire 1 D _067_ $end
$var wire 1 E _066_ $end
$var wire 1 F _065_ $end
$var wire 1 G _064_ $end
$var wire 1 H _063_ $end
$var wire 1 I _062_ $end
$var wire 1 J _061_ $end
$var wire 1 K _060_ $end
$var wire 1 L _059_ $end
$var wire 1 M _058_ $end
$var wire 1 N _057_ $end
$var wire 1 O _056_ $end
$var wire 1 P _055_ $end
$var wire 1 Q _054_ $end
$var wire 1 R _053_ $end
$var wire 1 S _052_ $end
$var wire 1 T _051_ $end
$var wire 1 U _050_ $end
$var wire 1 V _049_ $end
$var wire 1 W _048_ $end
$var wire 1 X _047_ $end
$var wire 1 Y _046_ $end
$var wire 1 Z _045_ $end
$var wire 1 [ _044_ $end
$var wire 1 \ _043_ $end
$var wire 1 ] _042_ $end
$var wire 1 ^ _041_ $end
$var wire 1 _ _040_ $end
$var wire 1 ` _039_ $end
$var wire 1 a _038_ $end
$var wire 1 b _037_ $end
$var wire 1 c _036_ $end
$var wire 1 d _035_ $end
$var wire 1 e _034_ $end
$var wire 1 f _033_ $end
$var wire 1 g _032_ $end
$var wire 1 h _031_ $end
$var wire 1 i _030_ $end
$var wire 1 j _029_ $end
$var wire 1 k _028_ $end
$var wire 1 l _027_ $end
$var wire 1 m _026_ $end
$var wire 1 n _025_ $end
$var wire 1 o _024_ $end
$var wire 1 p _023_ $end
$var wire 1 q _022_ $end
$var wire 1 r _021_ $end
$var wire 1 s _020_ $end
$var wire 1 t _019_ $end
$var wire 1 u _018_ $end
$var wire 1 v _017_ $end
$var wire 1 w _016_ $end
$var wire 1 x _015_ $end
$var wire 1 y _014_ $end
$var wire 1 z _013_ $end
$var wire 1 { _012_ $end
$var wire 1 | _011_ $end
$var wire 1 } _010_ $end
$var wire 1 ~ _009_ $end
$var wire 1 !" _008_ $end
$var wire 1 "" _007_ $end
$var wire 1 #" _006_ $end
$var wire 1 $" _005_ $end
$var wire 1 %" _004_ $end
$var wire 1 &" _003_ $end
$var wire 1 '" _002_ $end
$var wire 8 (" _001_ [7:0] $end
$var wire 3 )" _000_ [2:0] $end
$var wire 8 *" FIFO_empties [7:0] $end
$scope module _070_ $end
$var wire 1 +" A $end
$var wire 1 l Y $end
$upscope $end
$scope module _071_ $end
$var wire 1 ," A $end
$var wire 1 k Y $end
$upscope $end
$scope module _072_ $end
$var wire 1 j Y $end
$var wire 1 ( A $end
$upscope $end
$scope module _073_ $end
$var wire 1 -" A $end
$var wire 1 i Y $end
$upscope $end
$scope module _074_ $end
$var wire 1 ." A $end
$var wire 1 h Y $end
$upscope $end
$scope module _075_ $end
$var wire 1 /" A $end
$var wire 1 g Y $end
$upscope $end
$scope module _076_ $end
$var wire 1 0" A $end
$var wire 1 f Y $end
$upscope $end
$scope module _077_ $end
$var wire 1 1" A $end
$var wire 1 e Y $end
$upscope $end
$scope module _078_ $end
$var wire 1 2" A $end
$var wire 1 d Y $end
$upscope $end
$scope module _079_ $end
$var wire 1 3" A $end
$var wire 1 c Y $end
$upscope $end
$scope module _080_ $end
$var wire 1 4" A $end
$var wire 1 b Y $end
$upscope $end
$scope module _081_ $end
$var wire 1 5" A $end
$var wire 1 a Y $end
$upscope $end
$scope module _082_ $end
$var wire 1 6" A $end
$var wire 1 ` Y $end
$upscope $end
$scope module _083_ $end
$var wire 1 7" A $end
$var wire 1 _ Y $end
$upscope $end
$scope module _084_ $end
$var wire 1 8" A $end
$var wire 1 ^ Y $end
$upscope $end
$scope module _085_ $end
$var wire 1 9" A $end
$var wire 1 ] Y $end
$upscope $end
$scope module _086_ $end
$var wire 1 :" A $end
$var wire 1 \ Y $end
$upscope $end
$scope module _087_ $end
$var wire 1 ;" A $end
$var wire 1 [ Y $end
$upscope $end
$scope module _088_ $end
$var wire 1 <" A $end
$var wire 1 Z Y $end
$upscope $end
$scope module _089_ $end
$var wire 1 Y Y $end
$var wire 1 - A $end
$upscope $end
$scope module _090_ $end
$var wire 1 l A $end
$var wire 1 =" B $end
$var wire 1 X Y $end
$upscope $end
$scope module _091_ $end
$var wire 1 >" A $end
$var wire 1 k B $end
$var wire 1 W Y $end
$upscope $end
$scope module _092_ $end
$var wire 1 ?" A $end
$var wire 1 W B $end
$var wire 1 V Y $end
$upscope $end
$scope module _093_ $end
$var wire 1 k A $end
$var wire 1 X B $end
$var wire 1 U Y $end
$upscope $end
$scope module _094_ $end
$var wire 1 j A $end
$var wire 1 T Y $end
$var wire 1 - B $end
$upscope $end
$scope module _095_ $end
$var wire 1 Y B $end
$var wire 1 S Y $end
$var wire 1 ( A $end
$upscope $end
$scope module _096_ $end
$var wire 1 U A $end
$var wire 1 S B $end
$var wire 1 R Y $end
$upscope $end
$scope module _097_ $end
$var wire 1 V A $end
$var wire 1 T B $end
$var wire 1 Q Y $end
$upscope $end
$scope module _098_ $end
$var wire 1 h A $end
$var wire 1 Q B $end
$var wire 1 P Y $end
$upscope $end
$scope module _099_ $end
$var wire 1 i A $end
$var wire 1 R B $end
$var wire 1 O Y $end
$upscope $end
$scope module _100_ $end
$var wire 1 P A $end
$var wire 1 O B $end
$var wire 1 N Y $end
$upscope $end
$scope module _101_ $end
$var wire 1 N A $end
$var wire 1 @" Y $end
$upscope $end
$scope module _102_ $end
$var wire 1 f A $end
$var wire 1 Q B $end
$var wire 1 M Y $end
$upscope $end
$scope module _103_ $end
$var wire 1 g A $end
$var wire 1 R B $end
$var wire 1 L Y $end
$upscope $end
$scope module _104_ $end
$var wire 1 M A $end
$var wire 1 L B $end
$var wire 1 K Y $end
$upscope $end
$scope module _105_ $end
$var wire 1 K A $end
$var wire 1 A" Y $end
$upscope $end
$scope module _106_ $end
$var wire 1 d A $end
$var wire 1 Q B $end
$var wire 1 J Y $end
$upscope $end
$scope module _107_ $end
$var wire 1 e A $end
$var wire 1 R B $end
$var wire 1 I Y $end
$upscope $end
$scope module _108_ $end
$var wire 1 J A $end
$var wire 1 I B $end
$var wire 1 H Y $end
$upscope $end
$scope module _109_ $end
$var wire 1 H A $end
$var wire 1 B" Y $end
$upscope $end
$scope module _110_ $end
$var wire 1 b A $end
$var wire 1 Q B $end
$var wire 1 G Y $end
$upscope $end
$scope module _111_ $end
$var wire 1 c A $end
$var wire 1 R B $end
$var wire 1 F Y $end
$upscope $end
$scope module _112_ $end
$var wire 1 G A $end
$var wire 1 F B $end
$var wire 1 E Y $end
$upscope $end
$scope module _113_ $end
$var wire 1 E A $end
$var wire 1 C" Y $end
$upscope $end
$scope module _114_ $end
$var wire 1 ` A $end
$var wire 1 Q B $end
$var wire 1 D Y $end
$upscope $end
$scope module _115_ $end
$var wire 1 a A $end
$var wire 1 R B $end
$var wire 1 C Y $end
$upscope $end
$scope module _116_ $end
$var wire 1 D A $end
$var wire 1 C B $end
$var wire 1 B Y $end
$upscope $end
$scope module _117_ $end
$var wire 1 B A $end
$var wire 1 D" Y $end
$upscope $end
$scope module _118_ $end
$var wire 1 ^ A $end
$var wire 1 Q B $end
$var wire 1 '" Y $end
$upscope $end
$scope module _119_ $end
$var wire 1 _ A $end
$var wire 1 R B $end
$var wire 1 &" Y $end
$upscope $end
$scope module _120_ $end
$var wire 1 '" A $end
$var wire 1 &" B $end
$var wire 1 %" Y $end
$upscope $end
$scope module _121_ $end
$var wire 1 %" A $end
$var wire 1 E" Y $end
$upscope $end
$scope module _122_ $end
$var wire 1 \ A $end
$var wire 1 Q B $end
$var wire 1 $" Y $end
$upscope $end
$scope module _123_ $end
$var wire 1 ] A $end
$var wire 1 R B $end
$var wire 1 #" Y $end
$upscope $end
$scope module _124_ $end
$var wire 1 $" A $end
$var wire 1 #" B $end
$var wire 1 "" Y $end
$upscope $end
$scope module _125_ $end
$var wire 1 "" A $end
$var wire 1 F" Y $end
$upscope $end
$scope module _126_ $end
$var wire 1 Z A $end
$var wire 1 Q B $end
$var wire 1 !" Y $end
$upscope $end
$scope module _127_ $end
$var wire 1 [ A $end
$var wire 1 R B $end
$var wire 1 ~ Y $end
$upscope $end
$scope module _128_ $end
$var wire 1 !" A $end
$var wire 1 ~ B $end
$var wire 1 } Y $end
$upscope $end
$scope module _129_ $end
$var wire 1 } A $end
$var wire 1 G" Y $end
$upscope $end
$scope module _130_ $end
$var wire 1 j A $end
$var wire 1 N B $end
$var wire 1 H" Y $end
$upscope $end
$scope module _131_ $end
$var wire 1 j A $end
$var wire 1 K B $end
$var wire 1 I" Y $end
$upscope $end
$scope module _132_ $end
$var wire 1 j A $end
$var wire 1 H B $end
$var wire 1 J" Y $end
$upscope $end
$scope module _133_ $end
$var wire 1 j A $end
$var wire 1 E B $end
$var wire 1 K" Y $end
$upscope $end
$scope module _134_ $end
$var wire 1 j A $end
$var wire 1 B B $end
$var wire 1 L" Y $end
$upscope $end
$scope module _135_ $end
$var wire 1 j A $end
$var wire 1 %" B $end
$var wire 1 M" Y $end
$upscope $end
$scope module _136_ $end
$var wire 1 j A $end
$var wire 1 "" B $end
$var wire 1 N" Y $end
$upscope $end
$scope module _137_ $end
$var wire 1 j A $end
$var wire 1 } B $end
$var wire 1 O" Y $end
$upscope $end
$scope module _138_ $end
$var wire 1 P" A $end
$var wire 1 Q" B $end
$var wire 1 | Y $end
$upscope $end
$scope module _139_ $end
$var wire 1 R" A $end
$var wire 1 j B $end
$var wire 1 { Y $end
$upscope $end
$scope module _140_ $end
$var wire 1 | A $end
$var wire 1 { B $end
$var wire 1 z Y $end
$upscope $end
$scope module _141_ $end
$var wire 1 Q A $end
$var wire 1 z B $end
$var wire 1 S" Y $end
$upscope $end
$scope module _142_ $end
$var wire 1 T" A $end
$var wire 1 | B $end
$var wire 1 y Y $end
$upscope $end
$scope module _143_ $end
$var wire 1 x Y $end
$var wire 1 0 B $end
$var wire 1 1 A $end
$upscope $end
$scope module _144_ $end
$var wire 1 w Y $end
$var wire 1 . B $end
$var wire 1 / A $end
$upscope $end
$scope module _145_ $end
$var wire 1 x A $end
$var wire 1 w B $end
$var wire 1 v Y $end
$upscope $end
$scope module _146_ $end
$var wire 1 u Y $end
$var wire 1 4 B $end
$var wire 1 5 A $end
$upscope $end
$scope module _147_ $end
$var wire 1 t Y $end
$var wire 1 2 B $end
$var wire 1 3 A $end
$upscope $end
$scope module _148_ $end
$var wire 1 u A $end
$var wire 1 t B $end
$var wire 1 s Y $end
$upscope $end
$scope module _149_ $end
$var wire 1 v A $end
$var wire 1 s B $end
$var wire 1 r Y $end
$upscope $end
$scope module _150_ $end
$var wire 1 y A $end
$var wire 1 r B $end
$var wire 1 q Y $end
$upscope $end
$scope module _151_ $end
$var wire 1 V B $end
$var wire 1 p Y $end
$var wire 1 - A $end
$upscope $end
$scope module _152_ $end
$var wire 1 p A $end
$var wire 1 o Y $end
$upscope $end
$scope module _153_ $end
$var wire 1 q A $end
$var wire 1 o B $end
$var wire 1 n Y $end
$upscope $end
$scope module _154_ $end
$var wire 1 n A $end
$var wire 1 U" Y $end
$upscope $end
$scope module _155_ $end
$var wire 1 j A $end
$var wire 1 n B $end
$var wire 1 V" Y $end
$upscope $end
$scope module _156_ $end
$var wire 1 r B $end
$var wire 1 m Y $end
$var wire 1 ( A $end
$upscope $end
$scope module _157_ $end
$var wire 1 y A $end
$var wire 1 m B $end
$var wire 1 W" Y $end
$upscope $end
$scope module _158_ $end
$var wire 1 Q A $end
$var wire 1 z B $end
$var wire 1 X" Y $end
$upscope $end
$scope module _159_ $end
$var wire 1 y A $end
$var wire 1 m B $end
$var wire 1 Y" Y $end
$upscope $end
$scope module _160_ $end
$var wire 1 Z" D $end
$var wire 1 6 C $end
$var reg 1 [" Q $end
$upscope $end
$scope module _161_ $end
$var wire 1 \" D $end
$var wire 1 6 C $end
$var reg 1 ]" Q $end
$upscope $end
$scope module _162_ $end
$var wire 1 ^" D $end
$var wire 1 6 C $end
$var reg 1 _" Q $end
$upscope $end
$scope module _163_ $end
$var wire 1 `" D $end
$var wire 1 6 C $end
$var reg 1 a" Q $end
$upscope $end
$scope module _164_ $end
$var wire 1 b" D $end
$var wire 1 6 C $end
$var reg 1 c" Q $end
$upscope $end
$scope module _165_ $end
$var wire 1 d" D $end
$var wire 1 6 C $end
$var reg 1 e" Q $end
$upscope $end
$scope module _166_ $end
$var wire 1 f" D $end
$var wire 1 6 C $end
$var reg 1 g" Q $end
$upscope $end
$scope module _167_ $end
$var wire 1 h" D $end
$var wire 1 6 C $end
$var reg 1 i" Q $end
$upscope $end
$scope module _168_ $end
$var wire 1 j" D $end
$var wire 1 6 C $end
$var reg 1 k" Q $end
$upscope $end
$scope module _169_ $end
$var wire 1 l" D $end
$var wire 1 6 C $end
$var reg 1 m" Q $end
$upscope $end
$scope module _170_ $end
$var wire 1 n" D $end
$var wire 1 6 C $end
$var reg 1 o" Q $end
$upscope $end
$upscope $end
$scope module probador_fsm_bp $end
$var wire 8 p" next_umbral_LH_out [7:0] $end
$var wire 8 q" next_umbral_LH_out_synth [7:0] $end
$var wire 3 r" nxt_state [2:0] $end
$var wire 3 s" nxt_state_synth [2:0] $end
$var wire 3 t" state [2:0] $end
$var wire 3 u" state_synth [2:0] $end
$var wire 8 v" umbral_LH_out [7:0] $end
$var wire 8 w" umbral_LH_out_synth [7:0] $end
$var reg 1 6 clk $end
$var reg 1 5 empty_fifo_0 $end
$var reg 1 4 empty_fifo_1 $end
$var reg 1 3 empty_fifo_2 $end
$var reg 1 2 empty_fifo_3 $end
$var reg 1 1 empty_fifo_4 $end
$var reg 1 0 empty_fifo_5 $end
$var reg 1 / empty_fifo_6 $end
$var reg 1 . empty_fifo_7 $end
$var reg 1 - init $end
$var reg 1 ( reset $end
$var reg 8 x" umbral_LH [7:0] $end
$upscope $end
$upscope $end
$scope module DFFSR $end
$var wire 1 y" C $end
$var wire 1 z" D $end
$var wire 1 {" R $end
$var wire 1 |" S $end
$var reg 1 }" Q $end
$upscope $end
$enddefinitions $end
#0
$dumpvars
x}"
z|"
z{"
zz"
zy"
b0 x"
bx w"
bx v"
bx u"
bx t"
b0x0 s"
b0 r"
bx q"
bx p"
xo"
0n"
xm"
0l"
xk"
0j"
xi"
0h"
xg"
0f"
xe"
0d"
xc"
0b"
xa"
0`"
x_"
0^"
x]"
0\"
x["
0Z"
0Y"
0X"
0W"
0V"
xU"
xT"
0S"
xR"
xQ"
xP"
0O"
0N"
0M"
0L"
0K"
0J"
0I"
0H"
xG"
xF"
xE"
xD"
xC"
xB"
xA"
x@"
x?"
x>"
x="
0<"
x;"
0:"
x9"
08"
x7"
06"
x5"
04"
x3"
02"
x1"
00"
x/"
0."
x-"
x,"
x+"
b11111111 *"
b0 )"
b0 ("
0'"
x&"
x%"
0$"
x#"
x""
0!"
x~
x}
x|
0{
1z
xy
0x
0w
1v
0u
0t
1s
0r
xq
1p
0o
xn
1m
xl
xk
1j
xi
1h
xg
1f
xe
1d
xc
1b
xa
1`
x_
1^
x]
1\
x[
1Z
1Y
xX
xW
xV
xU
0T
1S
0R
1Q
0P
xO
xN
0M
xL
xK
0J
xI
xH
0G
xF
xE
0D
xC
xB
bx A
b0x0 @
bx ?
b0 >
bx =
bx <
bx ;
b0 :
bx 9
b11111111 8
b0 7
06
15
14
13
12
11
10
1/
1.
0-
bx ,
bx +
b0 *
b0x0 )
0(
bx '
bx &
b0 %
bx $
bx #
z"
z!
$end
#1
b0 )
b0 @
b0 s"
0U"
1n
0@"
0A"
0B"
0C"
0D"
0E"
0F"
b0 +
b0 A
b0 q"
0G"
1U
1N
1K
1H
1E
1B
1%"
1""
1}
0V
0q
0X
0O
0L
0I
0F
0C
0&"
0#"
0~
1W
1y
1|
1l
1k
1i
1g
1e
1c
1a
1_
1]
1[
b0 ,
b0 9
b0 p"
0P"
0>"
0+"
0T"
0R"
0,"
0Q"
0?"
0="
0-"
0/"
01"
03"
05"
07"
09"
0;"
b0 $
b0 <
b0 v"
b0 '
b0 ;
b0 t"
0["
0]"
b0 &
b0 ?
b0 u"
0_"
0a"
0c"
0e"
0g"
0i"
0k"
0m"
b0 #
b0 =
b0 w"
0o"
16
#2
06
#3
1Z"
b1 )
b1 @
b1 s"
1S"
b1 )"
1X"
0z
1T
1{
0S
0j
b1 *
b1 :
b1 r"
1(
16
#4
06
#5
1b"
1d"
1f"
1I"
1J"
b1110 ("
1K"
1A"
1B"
b1110 +
b1110 A
b1110 q"
1C"
0K
0H
0E
1M
1J
1G
1Z"
1R
b1 )
b1 @
b1 s"
1S"
b1 )"
1X"
0Q
0U
1z
1V
1X
0|
0W
0l
0b
0d
0f
1P"
1>"
1+"
14"
12"
10"
b1110 ,
b1110 9
b1110 p"
b1 '
b1 ;
b1 t"
b1 &
b1 ?
b1 u"
1["
b1110 %
b1110 7
b1110 >
b1110 x"
16
#6
06
#7
1f"
1d"
1b"
0`"
1K"
1J"
1I"
b1110 ("
0H"
1\"
1C"
1B"
1A"
b1110 +
b1110 A
b1110 q"
0@"
1V"
0Z"
1L
1I
1F
0E
0H
0K
1N
1U"
b10 )
b10 @
b10 s"
0S"
b10 )"
0X"
0n
0R
0G
0J
0M
0P
1Q
1o
1S
1b
1d
1f
0h
0p
0T
0c
0e
0g
04"
02"
00"
1."
0Y
13"
11"
1/"
b10 *
b10 :
b10 r"
b1 %
b1 7
b1 >
b1 x"
1-
1g"
1e"
b1110 #
b1110 =
b1110 w"
1c"
b1110 $
b1110 <
b1110 v"
16
#8
06
#9
0o
1q
1p
0y
0V
0X
1U
1|
1W
0{
1l
0k
0P"
0>"
0+"
1T"
1R"
1,"
b10 '
b10 ;
b10 t"
0["
b10 &
b10 ?
b10 u"
1]"
16
#10
06
#11
16
#12
06
#13
16
#14
06
#15
0\"
0V"
0U"
1^"
1n
b100 )
b100 @
b100 s"
1W"
b100 )"
1Y"
0q
0m
1r
0v
0s
1w
1x
1t
1u
b100 *
b100 :
b100 r"
b1010110 8
0.
00
02
b1010110 *"
05
16
#16
06
#17
0^"
b0 )
b0 @
b0 s"
0W"
b0 )"
0Y"
1y
1{
0|
1k
b0 *
b0 :
b0 r"
0T"
0R"
0,"
1Q"
1?"
1="
b100 '
b100 ;
b100 t"
0]"
b100 &
b100 ?
b100 u"
1_"
16
#18
06
#19
1Z"
b1 )
b1 @
b1 s"
1S"
b1 )"
1X"
0z
1|
0b
0d
0f
14"
12"
10"
0Q"
0?"
0="
b1 *
b1 :
b1 r"
b1111 %
b1111 7
b1111 >
b1111 x"
b0 &
b0 ?
b0 u"
0_"
b0 '
b0 ;
b0 t"
16
#20
06
#21
1\"
1V"
1U"
0n
0Z"
1o
b10 )
b10 @
b10 s"
0S"
b10 )"
0X"
0p
0U
1z
1V
1X
0|
0W
0l
b10 *
b10 :
b10 r"
1P"
1>"
1+"
b1 '
b1 ;
b1 t"
b1 &
b1 ?
b1 u"
1["
16
#22
06
#23
0\"
0V"
0U"
1n
1^"
0o
b100 )
b100 @
b100 s"
1W"
b100 )"
1Y"
1p
0y
0V
1U
0X
0{
1|
1W
0k
1l
1T"
1R"
1,"
0P"
0>"
0+"
b100 *
b100 :
b100 r"
1]"
b10 &
b10 ?
b10 u"
0["
b10 '
b10 ;
b10 t"
16
#24
06
#25
0^"
b0 )
b0 @
b0 s"
0W"
b0 )"
0Y"
1y
1{
0|
1k
b0 *
b0 :
b0 r"
0T"
0R"
0,"
1Q"
1?"
1="
b100 '
b100 ;
b100 t"
0]"
b100 &
b100 ?
b100 u"
1_"
16
#26
06
#27
1Z"
b1 )
b1 @
b1 s"
1S"
b1 )"
1X"
0z
1|
1d
1h
02"
0."
0Q"
0?"
0="
b1 *
b1 :
b1 r"
b1010 %
b1010 7
b1010 >
b1010 x"
b0 &
b0 ?
b0 u"
0_"
b0 '
b0 ;
b0 t"
16
#28
06
#29
1\"
1V"
1U"
0n
0Z"
1o
b10 )
b10 @
b10 s"
0S"
b10 )"
0X"
0p
0U
1z
1V
1X
0|
0W
0l
b10 *
b10 :
b10 r"
1P"
1>"
1+"
b1 '
b1 ;
b1 t"
b1 &
b1 ?
b1 u"
1["
16
#30
06
#31
b0 )
b0 @
b0 s"
0U"
1n
0o
1p
0y
0V
0b"
0d"
0f"
0\"
1U
0X
0I"
0J"
b0 ("
0K"
b0 )"
0V"
0{
1|
1W
1m
0k
1l
1j
1T"
1R"
1,"
0P"
0>"
0+"
b0 *
b0 :
b0 r"
0(
1]"
b10 &
b10 ?
b10 u"
0["
b10 '
b10 ;
b10 t"
16
#32
06
#33
0A"
0B"
b0 +
b0 A
b0 q"
0C"
1K
1H
1E
0L
0I
0F
1y
1k
1g
1e
1c
b0 ,
b0 9
b0 p"
0T"
0R"
0,"
0/"
01"
03"
b0 $
b0 <
b0 v"
b0 '
b0 ;
b0 t"
b0 &
b0 ?
b0 u"
0]"
0c"
0e"
b0 #
b0 =
b0 w"
0g"
16
