fsm/fsm.vcd
$date
	Tue Nov 23 01:18:38 2021
$end
$version
	Icarus Verilog
$end
$timescale
	1s
$end
$scope module BUF $end
$var wire 1 ! A $end
$var wire 1 " Y $end
$upscope $end
$scope module BancoPruebas_fsm $end
$var wire 1 # idle_out_synth $end
$var wire 8 $ umbral_LH_out_synth [7:0] $end
$var wire 8 % umbral_LH_out [7:0] $end
$var wire 8 & umbral_LH [7:0] $end
$var wire 3 ' state_synth [2:0] $end
$var wire 3 ( state [2:0] $end
$var wire 1 ) reset $end
$var wire 3 * nxt_state_synth [2:0] $end
$var wire 3 + nxt_state [2:0] $end
$var wire 8 , next_umbral_LH_out_synth [7:0] $end
$var wire 8 - next_umbral_LH_out [7:0] $end
$var wire 1 . init $end
$var wire 1 / idle_out $end
$var wire 1 0 empty_fifo_7 $end
$var wire 1 1 empty_fifo_6 $end
$var wire 1 2 empty_fifo_5 $end
$var wire 1 3 empty_fifo_4 $end
$var wire 1 4 empty_fifo_3 $end
$var wire 1 5 empty_fifo_2 $end
$var wire 1 6 empty_fifo_1 $end
$var wire 1 7 empty_fifo_0 $end
$var wire 1 8 clk $end
$scope module fsm_bp $end
$var wire 8 9 umbral_LH [7:0] $end
$var wire 1 ) reset $end
$var wire 1 . init $end
$var wire 1 0 empty_fifo_7 $end
$var wire 1 1 empty_fifo_6 $end
$var wire 1 2 empty_fifo_5 $end
$var wire 1 3 empty_fifo_4 $end
$var wire 1 4 empty_fifo_3 $end
$var wire 1 5 empty_fifo_2 $end
$var wire 1 6 empty_fifo_1 $end
$var wire 1 7 empty_fifo_0 $end
$var wire 1 8 clk $end
$var reg 8 : FIFO_empties [7:0] $end
$var reg 1 / idle_out $end
$var reg 8 ; next_umbral_LH_out [7:0] $end
$var reg 3 < nxt_state [2:0] $end
$var reg 3 = state [2:0] $end
$var reg 8 > umbral_LH_out [7:0] $end
$upscope $end
$scope module fsm_synth_bp $end
$var wire 1 # idle_out $end
$var wire 8 ? umbral_LH_out [7:0] $end
$var wire 8 @ umbral_LH [7:0] $end
$var wire 3 A state [2:0] $end
$var wire 1 ) reset $end
$var wire 3 B nxt_state [2:0] $end
$var wire 8 C next_umbral_LH_out [7:0] $end
$var wire 1 . init $end
$var wire 1 0 empty_fifo_7 $end
$var wire 1 1 empty_fifo_6 $end
$var wire 1 2 empty_fifo_5 $end
$var wire 1 3 empty_fifo_4 $end
$var wire 1 4 empty_fifo_3 $end
$var wire 1 5 empty_fifo_2 $end
$var wire 1 6 empty_fifo_1 $end
$var wire 1 7 empty_fifo_0 $end
$var wire 1 8 clk $end
$var wire 1 D _069_ $end
$var wire 1 E _068_ $end
$var wire 1 F _067_ $end
$var wire 1 G _066_ $end
$var wire 1 H _065_ $end
$var wire 1 I _064_ $end
$var wire 1 J _063_ $end
$var wire 1 K _062_ $end
$var wire 1 L _061_ $end
$var wire 1 M _060_ $end
$var wire 1 N _059_ $end
$var wire 1 O _058_ $end
$var wire 1 P _057_ $end
$var wire 1 Q _056_ $end
$var wire 1 R _055_ $end
$var wire 1 S _054_ $end
$var wire 1 T _053_ $end
$var wire 1 U _052_ $end
$var wire 1 V _051_ $end
$var wire 1 W _050_ $end
$var wire 1 X _049_ $end
$var wire 1 Y _048_ $end
$var wire 1 Z _047_ $end
$var wire 1 [ _046_ $end
$var wire 1 \ _045_ $end
$var wire 1 ] _044_ $end
$var wire 1 ^ _043_ $end
$var wire 1 _ _042_ $end
$var wire 1 ` _041_ $end
$var wire 1 a _040_ $end
$var wire 1 b _039_ $end
$var wire 1 c _038_ $end
$var wire 1 d _037_ $end
$var wire 1 e _036_ $end
$var wire 1 f _035_ $end
$var wire 1 g _034_ $end
$var wire 1 h _033_ $end
$var wire 1 i _032_ $end
$var wire 1 j _031_ $end
$var wire 1 k _030_ $end
$var wire 1 l _029_ $end
$var wire 1 m _028_ $end
$var wire 1 n _027_ $end
$var wire 1 o _026_ $end
$var wire 1 p _025_ $end
$var wire 1 q _024_ $end
$var wire 1 r _023_ $end
$var wire 1 s _022_ $end
$var wire 1 t _021_ $end
$var wire 1 u _020_ $end
$var wire 1 v _019_ $end
$var wire 1 w _018_ $end
$var wire 1 x _017_ $end
$var wire 1 y _016_ $end
$var wire 1 z _015_ $end
$var wire 1 { _014_ $end
$var wire 1 | _013_ $end
$var wire 1 } _012_ $end
$var wire 1 ~ _011_ $end
$var wire 1 !" _010_ $end
$var wire 1 "" _009_ $end
$var wire 1 #" _008_ $end
$var wire 1 $" _007_ $end
$var wire 1 %" _006_ $end
$var wire 1 &" _005_ $end
$var wire 1 '" _004_ $end
$var wire 1 (" _003_ $end
$var wire 1 )" _002_ $end
$var wire 8 *" _001_ [7:0] $end
$var wire 3 +" _000_ [2:0] $end
$var wire 8 ," FIFO_empties [7:0] $end
$scope module _070_ $end
$var wire 1 -" A $end
$var wire 1 n Y $end
$upscope $end
$scope module _071_ $end
$var wire 1 ." A $end
$var wire 1 m Y $end
$upscope $end
$scope module _072_ $end
$var wire 1 l Y $end
$var wire 1 ) A $end
$upscope $end
$scope module _073_ $end
$var wire 1 /" A $end
$var wire 1 k Y $end
$upscope $end
$scope module _074_ $end
$var wire 1 0" A $end
$var wire 1 j Y $end
$upscope $end
$scope module _075_ $end
$var wire 1 1" A $end
$var wire 1 i Y $end
$upscope $end
$scope module _076_ $end
$var wire 1 2" A $end
$var wire 1 h Y $end
$upscope $end
$scope module _077_ $end
$var wire 1 3" A $end
$var wire 1 g Y $end
$upscope $end
$scope module _078_ $end
$var wire 1 4" A $end
$var wire 1 f Y $end
$upscope $end
$scope module _079_ $end
$var wire 1 5" A $end
$var wire 1 e Y $end
$upscope $end
$scope module _080_ $end
$var wire 1 6" A $end
$var wire 1 d Y $end
$upscope $end
$scope module _081_ $end
$var wire 1 7" A $end
$var wire 1 c Y $end
$upscope $end
$scope module _082_ $end
$var wire 1 8" A $end
$var wire 1 b Y $end
$upscope $end
$scope module _083_ $end
$var wire 1 9" A $end
$var wire 1 a Y $end
$upscope $end
$scope module _084_ $end
$var wire 1 :" A $end
$var wire 1 ` Y $end
$upscope $end
$scope module _085_ $end
$var wire 1 ;" A $end
$var wire 1 _ Y $end
$upscope $end
$scope module _086_ $end
$var wire 1 <" A $end
$var wire 1 ^ Y $end
$upscope $end
$scope module _087_ $end
$var wire 1 =" A $end
$var wire 1 ] Y $end
$upscope $end
$scope module _088_ $end
$var wire 1 >" A $end
$var wire 1 \ Y $end
$upscope $end
$scope module _089_ $end
$var wire 1 [ Y $end
$var wire 1 . A $end
$upscope $end
$scope module _090_ $end
$var wire 1 n A $end
$var wire 1 ?" B $end
$var wire 1 Z Y $end
$upscope $end
$scope module _091_ $end
$var wire 1 @" A $end
$var wire 1 m B $end
$var wire 1 Y Y $end
$upscope $end
$scope module _092_ $end
$var wire 1 A" A $end
$var wire 1 Y B $end
$var wire 1 X Y $end
$upscope $end
$scope module _093_ $end
$var wire 1 m A $end
$var wire 1 Z B $end
$var wire 1 W Y $end
$upscope $end
$scope module _094_ $end
$var wire 1 l A $end
$var wire 1 V Y $end
$var wire 1 . B $end
$upscope $end
$scope module _095_ $end
$var wire 1 [ B $end
$var wire 1 U Y $end
$var wire 1 ) A $end
$upscope $end
$scope module _096_ $end
$var wire 1 W A $end
$var wire 1 U B $end
$var wire 1 T Y $end
$upscope $end
$scope module _097_ $end
$var wire 1 X A $end
$var wire 1 V B $end
$var wire 1 S Y $end
$upscope $end
$scope module _098_ $end
$var wire 1 j A $end
$var wire 1 S B $end
$var wire 1 R Y $end
$upscope $end
$scope module _099_ $end
$var wire 1 k A $end
$var wire 1 T B $end
$var wire 1 Q Y $end
$upscope $end
$scope module _100_ $end
$var wire 1 R A $end
$var wire 1 Q B $end
$var wire 1 P Y $end
$upscope $end
$scope module _101_ $end
$var wire 1 P A $end
$var wire 1 B" Y $end
$upscope $end
$scope module _102_ $end
$var wire 1 h A $end
$var wire 1 S B $end
$var wire 1 O Y $end
$upscope $end
$scope module _103_ $end
$var wire 1 i A $end
$var wire 1 T B $end
$var wire 1 N Y $end
$upscope $end
$scope module _104_ $end
$var wire 1 O A $end
$var wire 1 N B $end
$var wire 1 M Y $end
$upscope $end
$scope module _105_ $end
$var wire 1 M A $end
$var wire 1 C" Y $end
$upscope $end
$scope module _106_ $end
$var wire 1 f A $end
$var wire 1 S B $end
$var wire 1 L Y $end
$upscope $end
$scope module _107_ $end
$var wire 1 g A $end
$var wire 1 T B $end
$var wire 1 K Y $end
$upscope $end
$scope module _108_ $end
$var wire 1 L A $end
$var wire 1 K B $end
$var wire 1 J Y $end
$upscope $end
$scope module _109_ $end
$var wire 1 J A $end
$var wire 1 D" Y $end
$upscope $end
$scope module _110_ $end
$var wire 1 d A $end
$var wire 1 S B $end
$var wire 1 I Y $end
$upscope $end
$scope module _111_ $end
$var wire 1 e A $end
$var wire 1 T B $end
$var wire 1 H Y $end
$upscope $end
$scope module _112_ $end
$var wire 1 I A $end
$var wire 1 H B $end
$var wire 1 G Y $end
$upscope $end
$scope module _113_ $end
$var wire 1 G A $end
$var wire 1 E" Y $end
$upscope $end
$scope module _114_ $end
$var wire 1 b A $end
$var wire 1 S B $end
$var wire 1 F Y $end
$upscope $end
$scope module _115_ $end
$var wire 1 c A $end
$var wire 1 T B $end
$var wire 1 E Y $end
$upscope $end
$scope module _116_ $end
$var wire 1 F A $end
$var wire 1 E B $end
$var wire 1 D Y $end
$upscope $end
$scope module _117_ $end
$var wire 1 D A $end
$var wire 1 F" Y $end
$upscope $end
$scope module _118_ $end
$var wire 1 ` A $end
$var wire 1 S B $end
$var wire 1 )" Y $end
$upscope $end
$scope module _119_ $end
$var wire 1 a A $end
$var wire 1 T B $end
$var wire 1 (" Y $end
$upscope $end
$scope module _120_ $end
$var wire 1 )" A $end
$var wire 1 (" B $end
$var wire 1 '" Y $end
$upscope $end
$scope module _121_ $end
$var wire 1 '" A $end
$var wire 1 G" Y $end
$upscope $end
$scope module _122_ $end
$var wire 1 ^ A $end
$var wire 1 S B $end
$var wire 1 &" Y $end
$upscope $end
$scope module _123_ $end
$var wire 1 _ A $end
$var wire 1 T B $end
$var wire 1 %" Y $end
$upscope $end
$scope module _124_ $end
$var wire 1 &" A $end
$var wire 1 %" B $end
$var wire 1 $" Y $end
$upscope $end
$scope module _125_ $end
$var wire 1 $" A $end
$var wire 1 H" Y $end
$upscope $end
$scope module _126_ $end
$var wire 1 \ A $end
$var wire 1 S B $end
$var wire 1 #" Y $end
$upscope $end
$scope module _127_ $end
$var wire 1 ] A $end
$var wire 1 T B $end
$var wire 1 "" Y $end
$upscope $end
$scope module _128_ $end
$var wire 1 #" A $end
$var wire 1 "" B $end
$var wire 1 !" Y $end
$upscope $end
$scope module _129_ $end
$var wire 1 !" A $end
$var wire 1 I" Y $end
$upscope $end
$scope module _130_ $end
$var wire 1 J" A $end
$var wire 1 K" B $end
$var wire 1 ~ Y $end
$upscope $end
$scope module _131_ $end
$var wire 1 L" A $end
$var wire 1 l B $end
$var wire 1 } Y $end
$upscope $end
$scope module _132_ $end
$var wire 1 ~ A $end
$var wire 1 } B $end
$var wire 1 | Y $end
$upscope $end
$scope module _133_ $end
$var wire 1 S A $end
$var wire 1 | B $end
$var wire 1 M" Y $end
$upscope $end
$scope module _134_ $end
$var wire 1 N" A $end
$var wire 1 ~ B $end
$var wire 1 { Y $end
$upscope $end
$scope module _135_ $end
$var wire 1 z Y $end
$var wire 1 2 B $end
$var wire 1 3 A $end
$upscope $end
$scope module _136_ $end
$var wire 1 y Y $end
$var wire 1 0 B $end
$var wire 1 1 A $end
$upscope $end
$scope module _137_ $end
$var wire 1 z A $end
$var wire 1 y B $end
$var wire 1 x Y $end
$upscope $end
$scope module _138_ $end
$var wire 1 w Y $end
$var wire 1 6 B $end
$var wire 1 7 A $end
$upscope $end
$scope module _139_ $end
$var wire 1 v Y $end
$var wire 1 4 B $end
$var wire 1 5 A $end
$upscope $end
$scope module _140_ $end
$var wire 1 w A $end
$var wire 1 v B $end
$var wire 1 u Y $end
$upscope $end
$scope module _141_ $end
$var wire 1 x A $end
$var wire 1 u B $end
$var wire 1 t Y $end
$upscope $end
$scope module _142_ $end
$var wire 1 { A $end
$var wire 1 t B $end
$var wire 1 s Y $end
$upscope $end
$scope module _143_ $end
$var wire 1 X B $end
$var wire 1 r Y $end
$var wire 1 . A $end
$upscope $end
$scope module _144_ $end
$var wire 1 r A $end
$var wire 1 q Y $end
$upscope $end
$scope module _145_ $end
$var wire 1 s A $end
$var wire 1 q B $end
$var wire 1 p Y $end
$upscope $end
$scope module _146_ $end
$var wire 1 p A $end
$var wire 1 O" Y $end
$upscope $end
$scope module _147_ $end
$var wire 1 l A $end
$var wire 1 p B $end
$var wire 1 P" Y $end
$upscope $end
$scope module _148_ $end
$var wire 1 t B $end
$var wire 1 o Y $end
$var wire 1 ) A $end
$upscope $end
$scope module _149_ $end
$var wire 1 { A $end
$var wire 1 o B $end
$var wire 1 Q" Y $end
$upscope $end
$scope module _150_ $end
$var wire 1 l A $end
$var wire 1 P B $end
$var wire 1 R" Y $end
$upscope $end
$scope module _151_ $end
$var wire 1 l A $end
$var wire 1 M B $end
$var wire 1 S" Y $end
$upscope $end
$scope module _152_ $end
$var wire 1 l A $end
$var wire 1 J B $end
$var wire 1 T" Y $end
$upscope $end
$scope module _153_ $end
$var wire 1 l A $end
$var wire 1 G B $end
$var wire 1 U" Y $end
$upscope $end
$scope module _154_ $end
$var wire 1 l A $end
$var wire 1 D B $end
$var wire 1 V" Y $end
$upscope $end
$scope module _155_ $end
$var wire 1 l A $end
$var wire 1 '" B $end
$var wire 1 W" Y $end
$upscope $end
$scope module _156_ $end
$var wire 1 l A $end
$var wire 1 $" B $end
$var wire 1 X" Y $end
$upscope $end
$scope module _157_ $end
$var wire 1 l A $end
$var wire 1 !" B $end
$var wire 1 Y" Y $end
$upscope $end
$scope module _158_ $end
$var wire 1 S A $end
$var wire 1 | B $end
$var wire 1 Z" Y $end
$upscope $end
$scope module _159_ $end
$var wire 1 { A $end
$var wire 1 o B $end
$var wire 1 [" Y $end
$upscope $end
$scope module _160_ $end
$var wire 1 \" D $end
$var wire 1 8 C $end
$var reg 1 ]" Q $end
$upscope $end
$scope module _161_ $end
$var wire 1 ^" D $end
$var wire 1 8 C $end
$var reg 1 _" Q $end
$upscope $end
$scope module _162_ $end
$var wire 1 `" D $end
$var wire 1 8 C $end
$var reg 1 a" Q $end
$upscope $end
$scope module _163_ $end
$var wire 1 b" D $end
$var wire 1 8 C $end
$var reg 1 c" Q $end
$upscope $end
$scope module _164_ $end
$var wire 1 d" D $end
$var wire 1 8 C $end
$var reg 1 e" Q $end
$upscope $end
$scope module _165_ $end
$var wire 1 f" D $end
$var wire 1 8 C $end
$var reg 1 g" Q $end
$upscope $end
$scope module _166_ $end
$var wire 1 h" D $end
$var wire 1 8 C $end
$var reg 1 i" Q $end
$upscope $end
$scope module _167_ $end
$var wire 1 j" D $end
$var wire 1 8 C $end
$var reg 1 k" Q $end
$upscope $end
$scope module _168_ $end
$var wire 1 l" D $end
$var wire 1 8 C $end
$var reg 1 m" Q $end
$upscope $end
$scope module _169_ $end
$var wire 1 n" D $end
$var wire 1 8 C $end
$var reg 1 o" Q $end
$upscope $end
$scope module _170_ $end
$var wire 1 p" D $end
$var wire 1 8 C $end
$var reg 1 q" Q $end
$upscope $end
$upscope $end
$scope module probador_fsm_bp $end
$var wire 1 / idle_out $end
$var wire 1 # idle_out_synth $end
$var wire 8 r" next_umbral_LH_out [7:0] $end
$var wire 8 s" next_umbral_LH_out_synth [7:0] $end
$var wire 3 t" nxt_state [2:0] $end
$var wire 3 u" nxt_state_synth [2:0] $end
$var wire 3 v" state [2:0] $end
$var wire 3 w" state_synth [2:0] $end
$var wire 8 x" umbral_LH_out [7:0] $end
$var wire 8 y" umbral_LH_out_synth [7:0] $end
$var reg 1 8 clk $end
$var reg 1 7 empty_fifo_0 $end
$var reg 1 6 empty_fifo_1 $end
$var reg 1 5 empty_fifo_2 $end
$var reg 1 4 empty_fifo_3 $end
$var reg 1 3 empty_fifo_4 $end
$var reg 1 2 empty_fifo_5 $end
$var reg 1 1 empty_fifo_6 $end
$var reg 1 0 empty_fifo_7 $end
$var reg 1 . init $end
$var reg 1 ) reset $end
$var reg 8 z" umbral_LH [7:0] $end
$upscope $end
$upscope $end
$scope module DFFSR $end
$var wire 1 {" C $end
$var wire 1 |" D $end
$var wire 1 }" R $end
$var wire 1 ~" S $end
$var reg 1 !# Q $end
$upscope $end
$enddefinitions $end
#0
$dumpvars
x!#
z~"
z}"
z|"
z{"
b0 z"
bx y"
bx x"
bx w"
bx v"
b0x0 u"
b0 t"
bx s"
bx r"
xq"
0p"
xo"
0n"
xm"
0l"
xk"
0j"
xi"
0h"
xg"
0f"
xe"
0d"
xc"
0b"
xa"
0`"
x_"
0^"
x]"
0\"
0["
0Z"
0Y"
0X"
0W"
0V"
0U"
0T"
0S"
0R"
0Q"
0P"
xO"
xN"
0M"
xL"
xK"
xJ"
xI"
xH"
xG"
xF"
xE"
xD"
xC"
xB"
xA"
x@"
x?"
0>"
x="
0<"
x;"
0:"
x9"
08"
x7"
06"
x5"
04"
x3"
02"
x1"
00"
x/"
x."
x-"
b11111111 ,"
b0 +"
b0 *"
0)"
x("
x'"
0&"
x%"
x$"
0#"
x""
x!"
x~
0}
1|
x{
0z
0y
1x
0w
0v
1u
0t
xs
1r
0q
xp
1o
xn
xm
1l
xk
1j
xi
1h
xg
1f
xe
1d
xc
1b
xa
1`
x_
1^
x]
1\
1[
xZ
xY
xX
xW
0V
1U
0T
1S
0R
xQ
xP
0O
xN
xM
0L
xK
xJ
0I
xH
xG
0F
xE
xD
bx C
b0x0 B
bx A
b0 @
bx ?
bx >
bx =
b0 <
bx ;
b11111111 :
b0 9
08
17
16
15
14
13
12
11
10
x/
0.
bx -
bx ,
b0 +
b0x0 *
0)
bx (
bx '
b0 &
bx %
bx $
0#
z"
z!
$end
#1
b0 *
b0 B
b0 u"
0O"
1p
0B"
0C"
0D"
0E"
0F"
0G"
0H"
b0 ,
b0 C
b0 s"
0I"
1W
1P
1M
1J
1G
1D
1'"
1$"
1!"
0X
0s
0Z
0Q
0N
0K
0H
0E
0("
0%"
0""
1Y
1{
1~
1n
1m
1k
1i
1g
1e
1c
1a
1_
1]
b0 -
b0 ;
b0 r"
0J"
0@"
0-"
0N"
0L"
0."
0K"
0A"
0?"
0/"
01"
03"
05"
07"
09"
0;"
0="
0/
b0 %
b0 >
b0 x"
b0 (
b0 =
b0 v"
0]"
0_"
b0 '
b0 A
b0 w"
0a"
0c"
0e"
0g"
0i"
0k"
0m"
0o"
b0 $
b0 ?
b0 y"
0q"
18
#2
08
#3
1\"
b1 *
b1 B
b1 u"
1M"
b1 +"
1Z"
0|
1V
1}
0U
0l
b1 +
b1 <
b1 t"
1)
18
#4
08
#5
1d"
1f"
1h"
1S"
1T"
b1110 *"
1U"
1C"
1D"
b1110 ,
b1110 C
b1110 s"
1E"
0M
0J
0G
1O
1L
1I
1\"
1T
b1 *
b1 B
b1 u"
1M"
b1 +"
1Z"
0S
0W
1|
1X
1Z
0~
0Y
0n
0d
0f
0h
1J"
1@"
1-"
16"
14"
12"
b1110 -
b1110 ;
b1110 r"
b1 (
b1 =
b1 v"
b1 '
b1 A
b1 w"
1]"
b1110 &
b1110 9
b1110 @
b1110 z"
18
#6
08
#7
1h"
1f"
1d"
0b"
1U"
1T"
1S"
b1110 *"
0R"
1^"
1E"
1D"
1C"
b1110 ,
b1110 C
b1110 s"
0B"
1P"
0\"
1N
1K
1H
0G
0J
0M
1P
1O"
b10 *
b10 B
b10 u"
0M"
b10 +"
0Z"
0p
0T
0I
0L
0O
0R
1S
1q
1U
1d
1f
1h
0j
0r
0V
0e
0g
0i
06"
04"
02"
10"
0[
15"
13"
11"
b10 +
b10 <
b10 t"
b1 &
b1 9
b1 @
b1 z"
1.
1i"
1g"
b1110 $
b1110 ?
b1110 y"
1e"
b1110 %
b1110 >
b1110 x"
18
#8
08
#9
0q
1s
1r
0{
0X
0Z
1W
1~
1Y
0}
1n
0m
1/
0J"
0@"
0-"
1N"
1L"
1."
b10 (
b10 =
b10 v"
0]"
b10 '
b10 A
b10 w"
1_"
18
#10
08
#11
18
#12
08
#13
18
#14
08
#15
0^"
0P"
0O"
1`"
1p
b100 *
b100 B
b100 u"
1Q"
b100 +"
1["
0s
0o
1t
0x
0u
1y
1z
1v
1w
b100 +
b100 <
b100 t"
b1010110 :
00
02
04
b1010110 ,"
07
18
#16
08
#17
0`"
b0 *
b0 B
b0 u"
0Q"
b0 +"
0["
1{
1}
0~
1m
b0 +
b0 <
b0 t"
0/
0N"
0L"
0."
1K"
1A"
1?"
b100 (
b100 =
b100 v"
0_"
b100 '
b100 A
b100 w"
1a"
18
#18
08
#19
1\"
b1 *
b1 B
b1 u"
1M"
b1 +"
1Z"
0|
1~
0d
0f
0h
16"
14"
12"
0K"
0A"
0?"
b1 +
b1 <
b1 t"
b1111 &
b1111 9
b1111 @
b1111 z"
b0 '
b0 A
b0 w"
0a"
b0 (
b0 =
b0 v"
18
#20
08
#21
1^"
1P"
1O"
0p
0\"
1q
b10 *
b10 B
b10 u"
0M"
b10 +"
0Z"
0r
0W
1|
1X
1Z
0~
0Y
0n
b10 +
b10 <
b10 t"
1J"
1@"
1-"
b1 (
b1 =
b1 v"
b1 '
b1 A
b1 w"
1]"
18
#22
08
#23
0^"
0P"
0O"
1p
1`"
0q
b100 *
b100 B
b100 u"
1Q"
b100 +"
1["
1r
0{
0X
1W
0Z
0}
1~
1Y
0m
1n
1N"
1L"
1."
0J"
0@"
0-"
b100 +
b100 <
b100 t"
1/
1_"
b10 '
b10 A
b10 w"
0]"
b10 (
b10 =
b10 v"
18
#24
08
#25
0`"
b0 *
b0 B
b0 u"
0Q"
b0 +"
0["
1{
1}
0~
1m
b0 +
b0 <
b0 t"
0/
0N"
0L"
0."
1K"
1A"
1?"
b100 (
b100 =
b100 v"
0_"
b100 '
b100 A
b100 w"
1a"
18
#26
08
#27
1\"
b1 *
b1 B
b1 u"
1M"
b1 +"
1Z"
0|
1~
1f
1j
04"
00"
0K"
0A"
0?"
b1 +
b1 <
b1 t"
b1010 &
b1010 9
b1010 @
b1010 z"
b0 '
b0 A
b0 w"
0a"
b0 (
b0 =
b0 v"
18
#28
08
#29
1^"
1P"
1O"
0p
0\"
1q
b10 *
b10 B
b10 u"
0M"
b10 +"
0Z"
0r
0W
1|
1X
1Z
0~
0Y
0n
b10 +
b10 <
b10 t"
1J"
1@"
1-"
b1 (
b1 =
b1 v"
b1 '
b1 A
b1 w"
1]"
18
#30
08
#31
b0 *
b0 B
b0 u"
0O"
1p
0q
1r
0{
0X
0^"
0d"
0f"
0h"
1W
0Z
b0 +"
0P"
0S"
0T"
b0 *"
0U"
0}
1~
1Y
1o
0m
1n
1l
1N"
1L"
1."
0J"
0@"
0-"
b0 +
b0 <
b0 t"
1/
0)
1_"
b10 '
b10 A
b10 w"
0]"
b10 (
b10 =
b10 v"
18
#32
08
#33
0C"
0D"
b0 ,
b0 C
b0 s"
0E"
1M
1J
1G
0N
0K
0H
1{
1m
1i
1g
1e
b0 -
b0 ;
b0 r"
0N"
0L"
0."
01"
03"
05"
0/
b0 %
b0 >
b0 x"
b0 (
b0 =
b0 v"
b0 '
b0 A
b0 w"
0_"
0e"
0g"
b0 $
b0 ?
b0 y"
0i"
18
